S7 Classes for Designs and Results
…
Printing:

Code

print(rpact_results)

Code

── SSC rpact results for binary fixed design ──

# A tibble: 300 × 5
   alpha power  pi_c delta_pi     n
   <dbl> <dbl> <dbl>    <dbl> <dbl>
 1  0.01  0.51   0.1     0.05  1184
 2  0.05  0.51   0.1     0.05   690
 3  0.1   0.51   0.1     0.05   488
 4  0.2   0.51   0.1     0.05   299
 5  0.49  0.51   0.1     0.05    90
 6  0.01  0.8    0.1     0.05  2041
 7  0.05  0.8    0.1     0.05  1372
 8  0.1   0.8    0.1     0.05  1080
 9  0.2   0.8    0.1     0.05   788
10  0.49  0.8    0.1     0.05   410
# ℹ 290 more rows
# ℹ Use `print(n = ...)` to see more rows
…
